[
  {
    "decision_id": "12300/QĐ-BCA",
    "decision_file": "",
    "sign_date": "2019-07-24",
    "received_date": "2020-02-02",
    "created_at": "2019-07-24T17:00:00Z",
    "updated_at": "2019-07-25T06:03:55Z"
  },
  {
    "decision_id": "456/QĐ-T48",
    "decision_file": "",
    "sign_date": "2019-07-24",
    "received_date": "2020-02-10",
    "created_at": "2019-07-24T17:00:00Z",
    "updated_at": "2019-07-25T06:03:55Z"
  },
  {
    "decision_id": "1002/QĐ-CTN",
    "decision_file": "",
    "sign_date": "2019-07-24",
    "received_date": "2020-02-14",
    "created_at": "2019-07-24T17:00:00Z",
    "updated_at": "2019-07-25T06:03:55Z"
  }
]